UTD/Fall 2024/EE_6325 VLSI Design/Projects/Project 1/Project Design/simulation/questa/msim_transcript
# Reading pref.tcl
# //  Questa Intel Starter FPGA Edition-64
# //  Version 2021.2 win64 Apr 14 2021
# //
# //  Copyright 1991-2021 Mentor Graphics Corporation
# //  All Rights Reserved.
# //
# //  QuestaSim and its associated documentation contain trade
# //  secrets and commercial or financial information that are the property of
# //  Mentor Graphics Corporation and are privileged, confidential,
# //  and exempt from disclosure under the Freedom of Information Act,
# //  5 U.S.C. Section 552. Furthermore, this information
# //  is prohibited from disclosure under the Trade Secrets Act,
# //  18 U.S.C. Section 1905.
# //
# do FIR_Filter_Project1_run_msim_rtl_verilog.do
# if {[file exists rtl_work]} {
# 	vdel -lib rtl_work -all
# }
# vlib rtl_work
# vmap work rtl_work
# Questa Intel Starter FPGA Edition-64 vmap 2021.2 Lib Mapping Utility 2021.04 Apr 14 2021
# vmap work rtl_work 
# Copying c:/intelfpga_lite/22.1std/questa_fse/win64/../modelsim.ini to modelsim.ini
# Modifying modelsim.ini
# 
# vlog -vlog01compat -work work +incdir+C:/Users/lmnjm/OneDrive/Documents/Grad\ School/UTD/Fall\ 2024/EEDG\ 6325/Projects/Project\ 1 {C:/Users/lmnjm/OneDrive/Documents/Grad School/UTD/Fall 2024/EEDG 6325/Projects/Project 1/FIR_Filter_Project1.v}
# Questa Intel Starter FPGA Edition-64 vlog 2021.2 Compiler 2021.04 Apr 14 2021
# Start time: 21:16:36 on Sep 01,2024
# vlog -reportprogress 300 -vlog01compat -work work "+incdir+C:/Users/lmnjm/OneDrive/Documents/Grad School/UTD/Fall 2024/EEDG 6325/Projects/Project 1" C:/Users/lmnjm/OneDrive/Documents/Grad School/UTD/Fall 2024/EEDG 6325/Projects/Project 1/FIR_Filter_Project1.v 
# -- Compiling module FIR_Filter_Project1
# 
# Top level modules:
# 	FIR_Filter_Project1
# End time: 21:16:36 on Sep 01,2024, Elapsed time: 0:00:00
# Errors: 0, Warnings: 0
# 
# vlog -vlog01compat -work work +incdir+C:/Users/lmnjm/OneDrive/Documents/Grad\ School/UTD/Fall\ 2024/EEDG\ 6325/Projects/Project\ 1 {C:/Users/lmnjm/OneDrive/Documents/Grad School/UTD/Fall 2024/EEDG 6325/Projects/Project 1/FIR_Filter_Project1_tb.v}
# Questa Intel Starter FPGA Edition-64 vlog 2021.2 Compiler 2021.04 Apr 14 2021
# Start time: 21:16:36 on Sep 01,2024
# vlog -reportprogress 300 -vlog01compat -work work "+incdir+C:/Users/lmnjm/OneDrive/Documents/Grad School/UTD/Fall 2024/EEDG 6325/Projects/Project 1" C:/Users/lmnjm/OneDrive/Documents/Grad School/UTD/Fall 2024/EEDG 6325/Projects/Project 1/FIR_Filter_Project1_tb.v 
# -- Compiling module FIR_Filter_Project1_tb
# 
# Top level modules:
# 	FIR_Filter_Project1_tb
# End time: 21:16:36 on Sep 01,2024, Elapsed time: 0:00:00
# Errors: 0, Warnings: 0
# 
# vsim -t 1ps -L altera_ver -L lpm_ver -L sgate_ver -L altera_mf_ver -L altera_lnsim_ver -L cyclonev_ver -L cyclonev_hssi_ver -L cyclonev_pcie_hip_ver -L rtl_work -L work -voptargs="+acc"  FIR_Filter_Project1_tb
# vsim -t 1ps -L altera_ver -L lpm_ver -L sgate_ver -L altera_mf_ver -L altera_lnsim_ver -L cyclonev_ver -L cyclonev_hssi_ver -L cyclonev_pcie_hip_ver -L rtl_work -L work -voptargs=""+acc"" FIR_Filter_Project1_tb 
# Start time: 21:16:36 on Sep 01,2024
# ** Note: (vsim-3812) Design is being optimized...
# Loading work.FIR_Filter_Project1_tb(fast)
# Loading work.FIR_Filter_Project1(fast)
# 
# add wave *
# view structure
# .main_pane.structure.interior.cs.body.struct
# view signals
# .main_pane.objects.interior.cs.body.tree
# run -all
# Time:    0	 | Data_in: 0	 | Data_out:   x	 | reset: 1
# Time:    5	 | Data_in: 0	 | Data_out:   0	 | reset: 1
# Time:   10	 | Data_in: 0	 | Data_out:   0	 | reset: 0
# Time:  110	 | Data_in: 6	 | Data_out:   0	 | reset: 0
# Time:  115	 | Data_in: 6	 | Data_out:  42	 | reset: 0
# Time:  125	 | Data_in: 6	 | Data_out:  90	 | reset: 0
# Time:  135	 | Data_in: 6	 | Data_out: 144	 | reset: 0
# Time:  145	 | Data_in: 6	 | Data_out: 216	 | reset: 0
# Time:  155	 | Data_in: 6	 | Data_out: 240	 | reset: 0
# Time:  210	 | Data_in: 3	 | Data_out: 240	 | reset: 0
# Time:  215	 | Data_in: 3	 | Data_out: 219	 | reset: 0
# Time:  225	 | Data_in: 3	 | Data_out: 195	 | reset: 0
# Time:  235	 | Data_in: 3	 | Data_out: 168	 | reset: 0
# Time:  245	 | Data_in: 3	 | Data_out: 132	 | reset: 0
# Time:  255	 | Data_in: 3	 | Data_out: 120	 | reset: 0
# Time:  310	 | Data_in: 2	 | Data_out: 120	 | reset: 0
# Time:  315	 | Data_in: 2	 | Data_out: 113	 | reset: 0
# Time:  325	 | Data_in: 2	 | Data_out: 105	 | reset: 0
# Time:  335	 | Data_in: 2	 | Data_out:  96	 | reset: 0
# Time:  345	 | Data_in: 2	 | Data_out:  84	 | reset: 0
# Time:  355	 | Data_in: 2	 | Data_out:  80	 | reset: 0
# Time:  410	 | Data_in: 5	 | Data_out:  80	 | reset: 0
# Time:  415	 | Data_in: 5	 | Data_out: 101	 | reset: 0
# Time:  420	 | Data_in: 5	 | Data_out: 101	 | reset: 1
# Time:  425	 | Data_in: 5	 | Data_out:   0	 | reset: 1
# Time:  430	 | Data_in: 5	 | Data_out:   0	 | reset: 0
# Time:  435	 | Data_in: 5	 | Data_out:  35	 | reset: 0
# Time:  445	 | Data_in: 5	 | Data_out:  75	 | reset: 0
# Time:  455	 | Data_in: 5	 | Data_out: 120	 | reset: 0
# Time:  465	 | Data_in: 5	 | Data_out: 180	 | reset: 0
# Time:  475	 | Data_in: 5	 | Data_out: 200	 | reset: 0
# Time:  530	 | Data_in: 2	 | Data_out: 200	 | reset: 0
# Time:  535	 | Data_in: 2	 | Data_out: 179	 | reset: 0
# Time:  545	 | Data_in: 2	 | Data_out: 155	 | reset: 0
# Time:  555	 | Data_in: 2	 | Data_out: 128	 | reset: 0
# Time:  565	 | Data_in: 2	 | Data_out:  92	 | reset: 0
# Time:  575	 | Data_in: 2	 | Data_out:  80	 | reset: 0
# Time:  630	 | Data_in: 0	 | Data_out:  80	 | reset: 0
# Time:  635	 | Data_in: 0	 | Data_out:  66	 | reset: 0
# Time:  645	 | Data_in: 0	 | Data_out:  50	 | reset: 0
# Time:  655	 | Data_in: 0	 | Data_out:  32	 | reset: 0
# Time:  665	 | Data_in: 0	 | Data_out:   8	 | reset: 0
# Time:  675	 | Data_in: 0	 | Data_out:   0	 | reset: 0
# Time:  730	 | Data_in: 2	 | Data_out:   0	 | reset: 0
# Time:  735	 | Data_in: 2	 | Data_out:  14	 | reset: 0
# Time:  745	 | Data_in: 2	 | Data_out:  30	 | reset: 0
# Time:  755	 | Data_in: 2	 | Data_out:  48	 | reset: 0
# Time:  765	 | Data_in: 2	 | Data_out:  72	 | reset: 0
# Time:  775	 | Data_in: 2	 | Data_out:  80	 | reset: 0
# Time:  830	 | Data_in: 4	 | Data_out:  80	 | reset: 0
# Time:  835	 | Data_in: 4	 | Data_out:  94	 | reset: 0
# Time:  845	 | Data_in: 4	 | Data_out: 110	 | reset: 0
# Time:  855	 | Data_in: 4	 | Data_out: 128	 | reset: 0
# Time:  865	 | Data_in: 4	 | Data_out: 152	 | reset: 0
# Time:  875	 | Data_in: 4	 | Data_out: 160	 | reset: 0
# ** Note: $stop    : C:/Users/lmnjm/OneDrive/Documents/Grad School/UTD/Fall 2024/EEDG 6325/Projects/Project 1/FIR_Filter_Project1_tb.v(66)
#    Time: 930 ps  Iteration: 0  Instance: /FIR_Filter_Project1_tb
# Break in Module FIR_Filter_Project1_tb at C:/Users/lmnjm/OneDrive/Documents/Grad School/UTD/Fall 2024/EEDG 6325/Projects/Project 1/FIR_Filter_Project1_tb.v line 66
# End time: 22:25:06 on Sep 01,2024, Elapsed time: 1:08:30
# Errors: 0, Warnings: 0
